"00:24:01:97:f0:10	1427955902.333483000		192.168.120.5	-56"
"00:24:01:97:f0:10	1427955902.659705000		192.168.120.5	-54"
"00:24:01:97:f0:10	1427955903.782884000		192.168.120.5	-55"
"00:24:01:97:f0:10	1427955904.397920000		192.168.120.5	-57"
"00:24:01:97:f0:10	1427955904.896268000		192.168.120.5	-56"
"00:24:01:97:f0:10	1427955905.216447000		192.168.120.5	-55"
"00:24:01:97:f0:10	1427955905.713532000		192.168.120.5	-56"
"00:24:01:97:f0:10	1427955906.036657000		192.168.120.5	-54"
"00:24:01:97:f0:10	1427955906.847332000		192.168.120.5	-56"
"00:24:01:97:f0:10	1427955908.596613000		192.168.120.5	-58"
"00:24:01:97:f0:10	1427955909.911234000		192.168.120.5	-55"
"00:24:01:97:f0:10	1427955910.849394000		192.168.120.5	-57"
"00:24:01:97:f0:10	1427955912.778040000		192.168.120.5	-56"
"00:24:01:97:f0:10	1427955913.408768000		192.168.120.5	-57"
"00:24:01:97:f0:10	1427955914.228157000		192.168.120.5	-57"
"00:24:01:97:f0:10	1427955914.740572000		192.168.120.5	-56"
"00:24:01:97:f0:10	1427955915.046779000		192.168.120.5	-55"
"00:24:01:97:f0:10	1427955917.796769000		192.168.120.5	-56"
"00:24:01:97:f0:10	1427955918.103418000		192.168.120.5	-54"
"00:24:01:97:f0:10	1427955918.411257000		192.168.120.5	-57"
"00:24:01:97:f0:10	1427955920.058582000		192.168.120.5	-55"
"00:24:01:97:f0:10	1427955921.499375000		192.168.120.5	-59"
"00:24:01:97:f0:10	1427955922.010421000		192.168.120.5	-56"
"00:24:01:97:f0:10	1427955922.609024000		192.168.120.5	-58"
"00:24:01:97:f0:10	1427955923.428192000		192.168.120.5	-54"
"00:24:01:97:f0:10	1427955924.759656000		192.168.120.5	-56"
"00:24:01:97:f0:10	1427955925.395974000		192.168.120.5	-57"
"00:24:01:97:f0:10	1427955925.915278000		192.168.120.5	-55"
"00:24:01:97:f0:10	1427955926.721863000		192.168.120.5	-56"
"00:24:01:97:f0:10	1427955927.847549000		192.168.120.5	-54"
"00:24:01:97:f0:10	1427955928.344402000		192.168.120.5	-56"
"00:24:01:97:f0:10	1427955928.666555000		192.168.120.5	-55"
"00:24:01:97:f0:10	1427955929.163489000		192.168.120.5	-56"
"00:24:01:97:f0:10	1427955931.621158000		192.168.120.5	-64"
"00:24:01:97:f0:10	1427955932.558510000		192.168.120.5	-58"
"00:24:01:97:f0:10	1427955933.070526000		192.168.120.5	-55"
"00:24:01:97:f0:10	1427955934.183020000		192.168.120.5	-56"
"00:24:01:97:f0:10	1427955935.630057000		192.168.120.5	-57"
"00:24:01:97:f0:10	1427955935.834440000		192.168.120.5	-63"
"00:24:01:97:f0:10	1427955936.436418000		192.168.120.5	-57"
"00:24:01:97:f0:10	1427955936.960944000		192.168.120.5	-56"
"00:24:01:97:f0:10	1427955937.268208000		192.168.120.5	-54"
"00:24:01:97:f0:10	1427955937.576557000		192.168.120.5	-58"
"00:24:01:97:f0:10	1427955938.072361000		192.168.120.5	-56"
"00:24:01:97:f0:10	1427955939.009161000		192.168.120.5	-57"
"00:24:01:97:f0:10	1427955940.017209000		192.168.120.5	-55"
"00:24:01:97:f0:10	1427955941.159709000		192.168.120.5	-55"
"00:24:01:97:f0:10	1427955941.658290000		192.168.120.5	-56"
"00:24:01:97:f0:10	1427955941.992276000		192.168.120.5	-55"
"00:24:01:97:f0:10	1427955942.798695000		192.168.120.5	-56"
"00:24:01:97:f0:10	1427955944.727553000		192.168.120.5	-56"
"00:24:01:97:f0:10	1427955945.051545000		192.168.120.5	-56"
"00:24:01:97:f0:10	1427955945.358117000		192.168.120.5	-58"
"00:24:01:97:f0:10	1427955945.881091000		192.168.120.5	-56"
"00:24:01:97:f0:10	1427955946.468186000		192.168.120.5	-58"
"00:24:01:97:f0:10	1427955947.611492000		192.168.120.5	-58"
"00:24:01:97:f0:10	1427955949.273275000		192.168.120.5	-56"
"00:24:01:97:f0:10	1427955949.557522000		192.168.120.5	-55"
"00:24:01:97:f0:10	1427955951.196121000		192.168.120.5	-56"
"00:24:01:97:f0:10	1427955951.501967000		192.168.120.5	-55"
"00:24:01:97:f0:10	1427955952.321413000		192.168.120.5	-55"
"00:24:01:97:f0:10	1427955952.628545000		192.168.120.5	-55"
"00:24:01:97:f0:10	1427955954.574432000		192.168.120.5	-56"
"00:24:01:97:f0:10	1427955955.991839000		192.168.120.5	-58"
"00:24:01:97:f0:10	1427955956.503642000		192.168.120.5	-55"
"00:24:01:97:f0:10	1427955956.811976000		192.168.120.5	-58"
"00:24:01:97:f0:10	1427955957.339759000		192.168.120.5	-56"
"00:24:01:97:f0:10	1427955957.656057000		192.168.120.5	-55"
"00:24:01:97:f0:10	1427955959.268791000		192.168.120.5	-56"
"00:24:01:97:f0:10	1427955960.702498000		192.168.120.5	-58"
"00:24:01:97:f0:10	1427955963.791112000		192.168.120.5	-56"
"00:24:01:97:f0:10	1427955964.593885000		192.168.120.5	-55"
"00:24:01:97:f0:10	1427955964.929019000		192.168.120.5	-55"
"00:24:01:97:f0:10	1427955966.540057000		192.168.120.5	-56"
"00:24:01:97:f0:10	1427955967.154620000		192.168.120.5	-57"
"00:24:01:97:f0:10	1427955968.500742000		192.168.120.5	-56"
"00:24:01:97:f0:10	1427955968.808350000		192.168.120.5	-55"
"00:24:01:97:f0:10	1427955969.116065000		192.168.120.5	-54"
"00:24:01:97:f0:10	1427955970.753736000		192.168.120.5	-56"
"00:24:01:97:f0:10	1427955971.880216000		192.168.120.5	-56"
"00:24:01:97:f0:10	1427955973.630421000		192.168.120.5	-57"
"00:24:01:97:f0:10	1427955974.130263000		192.168.120.5	-55"
"00:24:01:97:f0:10	1427955974.441304000		192.168.120.5	-58"
"00:24:01:97:f0:10	1427955975.243739000		192.168.120.5	-58"
"00:24:01:97:f0:10	1427955976.078934000		192.168.120.5	-57"
"00:24:01:97:f0:10	1427955976.881793000		192.168.120.5	-54"
"00:24:01:97:f0:10	1427955977.394822000		192.168.120.5	-56"
"00:24:01:97:f0:10	1427955978.519874000		192.168.120.5	-56"
"00:24:01:97:f0:10	1427955978.827452000		192.168.120.5	-54"
"00:24:01:97:f0:10	1427955979.151474000		192.168.120.5	-55"
"00:24:01:97:f0:10	1427955979.457768000		192.168.120.5	-58"
"00:24:01:97:f0:10	1427955979.970637000		192.168.120.5	-56"
"00:24:01:97:f0:10	1427955980.261354000		192.168.120.5	-58"
"00:24:01:97:f0:10	1427955981.096294000		192.168.120.5	-54"
"00:24:01:97:f0:10	1427955983.381924000		192.168.120.5	-57"
"00:24:01:97:f0:10	1427955983.862244000		192.168.120.5	-56"
"00:24:01:97:f0:10	1427955984.166240000		192.168.120.5	-54"
"00:24:01:97:f0:10	1427955984.681626000		192.168.120.5	-56"
"00:24:01:97:f0:10	1427955986.098361000		192.168.120.5	-56"
"00:24:01:97:f0:10	1427955986.405585000		192.168.120.5	-54"
"00:24:01:97:f0:10	1427955986.729501000		192.168.120.5	-57"
"00:24:01:97:f0:10	1427955987.240561000		192.168.120.5	-57"
"00:24:01:97:f0:10	1427955987.548601000		192.168.120.5	-55"
"00:24:01:97:f0:10	1427955988.611220000		192.168.120.5	-56"
"00:24:01:97:f0:10	1427955989.024878000		192.168.120.5	-54"
"00:24:01:97:f0:10	1427955989.177218000		192.168.120.5	-57"
"00:24:01:97:f0:10	1427955989.930787000		192.168.120.5	-54"
"00:24:01:97:f0:10	1427955990.092433000		192.168.120.5	-58"
"00:24:01:97:f0:10	1427955990.604002000		192.168.120.5	-55"
"00:24:01:97:f0:10	1427955991.494395000		192.168.120.5	-56"
"00:24:01:97:f0:10	1427955992.223516000		192.168.120.5	-63"
"00:24:01:97:f0:10	1427955995.613492000		192.168.120.5	-54"
"00:24:01:97:f0:10	1427955996.112597000		192.168.120.5	-56"
"00:24:01:97:f0:10	1427955997.226411000		192.168.120.5	-54"
"00:24:01:97:f0:10	1427955997.853571000		192.168.120.5	-57"
"00:24:01:97:f0:10	1427955998.362284000		192.168.120.5	-53"
"00:24:01:97:f0:10	1427955999.493983000		192.168.120.5	-58"
"00:24:01:97:f0:10	1427956000.506319000		192.168.120.5	-56"
"00:24:01:97:f0:10	1427956000.831696000		192.168.120.5	-55"
"00:24:01:97:f0:10	1427956001.938987000		192.168.120.5	-54"
"00:24:01:97:f0:10	1427956003.379896000		192.168.120.5	-54"
"00:24:01:97:f0:10	1427956003.687108000		192.168.120.5	-57"
"00:24:01:97:f0:10	1427956004.211371000		192.168.120.5	-56"
"00:24:01:97:f0:10	1427956005.640875000		192.168.120.5	-57"
"00:24:01:97:f0:10	1427956006.640134000		192.168.120.5	-55"
"00:24:01:97:f0:10	1427956006.951259000		192.168.120.5	-57"
"00:24:01:97:f0:10	1427956007.784814000		192.168.120.5	-54"
"00:24:01:97:f0:10	1427956007.974776000		192.168.120.5	-63"
"00:24:01:97:f0:10	1427956008.297649000		192.168.120.5	-56"
"00:24:01:97:f0:10	1427956009.104814000		192.168.120.5	-55"
"00:24:01:97:f0:10	1427956010.544648000		192.168.120.5	-57"
"00:24:01:97:f0:10	1427956011.066280000		192.168.120.5	-55"
"00:24:01:97:f0:10	1427956011.879725000		192.168.120.5	-56"
"00:24:01:97:f0:10	1427956012.698095000		192.168.120.5	-56"
"00:24:01:97:f0:10	1427956013.014465000		192.168.120.5	-54"
"00:24:01:97:f0:10	1427956015.559141000		192.168.120.5	-55"
"00:24:01:97:f0:10	1427956017.549428000		192.168.120.5	-57"
"00:24:01:97:f0:10	1427956018.663059000		192.168.120.5	-57"
"00:24:01:97:f0:10	1427956019.175086000		192.168.120.5	-56"
"00:24:01:97:f0:10	1427956019.491557000		192.168.120.5	-54"
"00:24:01:97:f0:10	1427956019.788606000		192.168.120.5	-57"
"00:24:01:97:f0:10	1427956019.993357000		192.168.120.5	-64"
"00:24:01:97:f0:10	1427956020.300560000		192.168.120.5	-56"
"00:24:01:97:f0:10	1427956020.915314000		192.168.120.5	-58"
"00:24:01:97:f0:10	1427956021.735488000		192.168.120.5	-55"
"00:24:01:97:f0:10	1427956022.054534000		192.168.120.5	-57"
"00:24:01:97:f0:10	1427956022.553428000		192.168.120.5	-55"
"00:24:01:97:f0:10	1427956024.001337000		192.168.120.5	-56"
"00:24:01:97:f0:10	1427956024.819349000		192.168.120.5	-56"
"00:24:01:97:f0:10	1427956025.129190000		192.168.120.5	-54"
"00:24:01:97:f0:10	1427956027.383056000		192.168.120.5	-57"
"00:24:01:97:f0:10	1427956028.202325000		192.168.120.5	-58"
"00:24:01:97:f0:10	1427956029.013592000		192.168.120.5	-57"
"00:24:01:97:f0:10	1427956029.532800000		192.168.120.5	-55"
"00:24:01:97:f0:10	1427956029.840306000		192.168.120.5	-54"
"00:24:01:97:f0:10	1427956030.131061000		192.168.120.5	-57"
"00:24:01:97:f0:10	1427956033.219662000		192.168.120.5	-56"
"00:24:01:97:f0:10	1427956034.022446000		192.168.120.5	-54"
"00:24:01:97:f0:10	1427956035.469695000		192.168.120.5	-57"
"00:24:01:97:f0:10	1427956035.984738000		192.168.120.5	-55"
"00:24:01:97:f0:10	1427956037.412574000		192.168.120.5	-57"
"00:24:01:97:f0:10	1427956038.236838000		192.168.120.5	-54"
"00:24:01:97:f0:10	1427956038.543917000		192.168.120.5	-57"
"00:24:01:97:f0:10	1427956039.860193000		192.168.120.5	-56"
"00:24:01:97:f0:10	1427956040.490623000		192.168.120.5	-57"
"00:24:01:97:f0:10	1427956041.002648000		192.168.120.5	-55"
"00:24:01:97:f0:10	1427956041.293521000		192.168.120.5	-58"
"00:24:01:97:f0:10	1427956042.743490000		192.168.120.5	-57"
"00:24:01:97:f0:10	1427956043.254586000		192.168.120.5	-56"
"00:24:01:97:f0:10	1427956043.568386000		192.168.120.5	-54"
"00:24:01:97:f0:10	1427956044.381288000		192.168.120.5	-56"
"00:24:01:97:f0:10	1427956046.121627000		192.168.120.5	-57"
"00:24:01:97:f0:10	1427956048.271995000		192.168.120.5	-54"
"00:24:01:97:f0:10	1427956049.092198000		192.168.120.5	-54"
"00:24:01:97:f0:10	1427956049.398731000		192.168.120.5	-57"
"00:24:01:97:f0:10	1427956049.894901000		192.168.120.5	-54"
"00:24:01:97:f0:10	1427956050.217533000		192.168.120.5	-54"
"00:24:01:97:f0:10	1427956052.167587000		192.168.120.5	-55"
"00:24:01:97:f0:10	1427956052.470768000		192.168.120.5	-58"
"00:24:01:97:f0:10	1427956053.273595000		192.168.120.5	-54"
"00:24:01:97:f0:10	1427956054.092925000		192.168.120.5	-55"
"00:24:01:97:f0:10	1427956055.542803000		192.168.120.5	-56"
"00:24:01:97:f0:10	1427956055.834229000		192.168.120.5	-57"
"00:24:01:97:f0:10	1427956056.669405000		192.168.120.5	-55"
"00:24:01:97:f0:10	1427956057.473195000		192.168.120.5	-56"
"00:24:01:97:f0:10	1427956057.793301000		192.168.120.5	-54"
"00:24:01:97:f0:10	1427956058.614930000		192.168.120.5	-56"
"00:24:01:97:f0:10	1427956059.738563000		192.168.120.5	-54"
"00:24:01:97:f0:10	1427956060.253091000		192.168.120.5	-56"
"00:24:01:97:f0:10	1427956061.363736000		192.168.120.5	-56"
"00:24:01:97:f0:10	1427956063.633227000		192.168.120.5	-56"
"00:24:01:97:f0:10	1427956064.231049000		192.168.120.5	-57"
"00:24:01:97:f0:10	1427956065.065882000		192.168.120.5	-56"
"00:24:01:97:f0:10	1427956066.193291000		192.168.120.5	-55"
"00:24:01:97:f0:10	1427956067.931115000		192.168.120.5	-54"
"00:24:01:97:f0:10	1427956068.238256000		192.168.120.5	-57"
"00:24:01:97:f0:10	1427956068.760239000		192.168.120.5	-54"
"00:24:01:97:f0:10	1427956072.936053000		192.168.120.5	-55"
"00:24:01:97:f0:10	1427956073.284961000		192.168.120.5	-54"
"00:24:01:97:f0:10	1427956073.870213000		192.168.120.5	-57"
"00:24:01:97:f0:10	1427956074.691660000		192.168.120.5	-57"
"00:24:01:97:f0:10	1427956078.275707000		192.168.120.5	-54"
"00:24:01:97:f0:10	1427956078.589450000		192.168.120.5	-57"
"00:24:01:97:f0:10	1427956079.912448000		192.168.120.5	-56"
"00:24:01:97:f0:10	1427956080.733359000		192.168.120.5	-56"
"00:24:01:97:f0:10	1427956081.024898000		192.168.120.5	-57"
"00:24:01:97:f0:10	1427956081.556181000		192.168.120.5	-55"
"00:24:01:97:f0:10	1427956081.857624000		192.168.120.5	-57"
"00:24:01:97:f0:10	1427956082.381204000		192.168.120.5	-55"
"00:24:01:97:f0:10	1427956083.803128000		192.168.120.5	-57"
"00:24:01:97:f0:10	1427956084.302516000		192.168.120.5	-56"
"00:24:01:97:f0:10	1427956085.736411000		192.168.120.5	-57"
"00:24:01:97:f0:10	1427956086.261047000		192.168.120.5	-55"
"00:24:01:97:f0:10	1427956086.888392000		192.168.120.5	-56"
"00:24:01:97:f0:10	1427956087.373981000		192.168.120.5	-56"
"00:24:01:97:f0:10	1427956087.694674000		192.168.120.5	-54"
"00:24:01:97:f0:10	1427956088.200437000		192.168.120.5	-56"
"00:24:01:97:f0:10	1427956090.461763000		192.168.120.5	-56"
"00:24:01:97:f0:10	1427956090.766378000		192.168.120.5	-54"
"00:24:01:97:f0:10	1427956091.076200000		192.168.120.5	-58"
"00:24:01:97:f0:10	1427956092.391134000		192.168.120.5	-55"
"00:24:01:97:f0:10	1427956093.530597000		192.168.120.5	-56"
"00:24:01:97:f0:10	1427956098.241995000		192.168.120.5	-56"
"00:24:01:97:f0:10	1427956099.060909000		192.168.120.5	-56"
"00:24:01:97:f0:10	1427956099.355018000		192.168.120.5	-57"
"00:24:01:97:f0:10	1427956099.880381000		192.168.120.5	-54"
"00:24:01:97:f0:10	1427956101.300962000		192.168.120.5	-58"
"00:24:01:97:f0:10	1427956102.734882000		192.168.120.5	-54"
"00:24:01:97:f0:10	1427956103.876651000		192.168.120.5	-54"
"00:24:01:97:f0:10	1427956107.445010000		192.168.120.5	-55"
"00:24:01:97:f0:10	1427956107.768176000		192.168.120.5	-54"
"00:24:01:97:f0:10	1427956108.572039000		192.168.120.5	-54"
"00:24:01:97:f0:10	1427956111.657140000		192.168.120.5	-57"
"00:24:01:97:f0:10	1427956111.861531000		192.168.120.5	-64"
"00:24:01:97:f0:10	1427956113.615249000		192.168.120.5	-54"
"00:24:01:97:f0:10	1427956114.731301000		192.168.120.5	-57"
"00:24:01:97:f0:10	1427956115.245946000		192.168.120.5	-54"
"00:24:01:97:f0:10	1427956116.062313000		192.168.120.5	-56"
"00:24:01:97:f0:10	1427956117.495388000		192.168.120.5	-54"
"00:24:01:97:f0:10	1427956118.312874000		192.168.120.5	-54"
"00:24:01:97:f0:10	1427956118.619495000		192.168.120.5	-57"
"00:24:01:97:f0:10	1427956119.740121000		192.168.120.5	-57"
"00:24:01:97:f0:10	1427956120.565778000		192.168.120.5	-56"
"00:24:01:97:f0:10	1427956122.820880000		192.168.120.5	-57"
"00:24:01:97:f0:10	1427956123.624477000		192.168.120.5	-57"
"00:24:01:97:f0:10	1427956123.932051000		192.168.120.5	-57"
"00:24:01:97:f0:10	1427956124.956306000		192.168.120.5	-56"
"00:24:01:97:f0:10	1427956128.041175000		192.168.120.5	-56"
"00:24:01:97:f0:10	1427956128.862759000		192.168.120.5	-56"
"00:24:01:97:f0:10	1427956129.992605000		192.168.120.5	-54"
"00:24:01:97:f0:10	1427956130.484693000		192.168.120.5	-55"
"00:24:01:97:f0:10	1427956130.806469000		192.168.120.5	-54"
"00:24:01:97:f0:10	1427956131.106754000		192.168.120.5	-57"
"00:24:01:97:f0:10	1427956131.611721000		192.168.120.5	-56"
"00:24:01:97:f0:10	1427956132.430310000		192.168.120.5	-56"
"00:24:01:97:f0:10	1427956133.067966000		192.168.120.5	-58"
"00:24:01:97:f0:10	1427956136.629260000		192.168.120.5	-54"
"00:24:01:97:f0:10	1427956138.281129000		192.168.120.5	-56"
"00:24:01:97:f0:10	1427956143.816688000		192.168.120.5	-57"
"00:24:01:97:f0:10	1427956144.325301000		192.168.120.5	-54"
"00:24:01:97:f0:10	1427956144.632624000		192.168.120.5	-57"
"00:24:01:97:f0:10	1427956145.142501000		192.168.120.5	-56"
"00:24:01:97:f0:10	1427956145.435288000		192.168.120.5	-55"
"00:24:01:97:f0:10	1427956146.255956000		192.168.120.5	-56"
"00:24:01:97:f0:10	1427956147.395106000		192.168.120.5	-56"
"00:24:01:97:f0:10	1427956148.523817000		192.168.120.5	-54"
"00:24:01:97:f0:10	1427956149.339639000		192.168.120.5	-57"
"00:24:01:97:f0:10	1427956150.161895000		192.168.120.5	-58"
"00:24:01:97:f0:10	1427956152.312342000		192.168.120.5	-56"
"00:24:01:97:f0:10	1427956152.603996000		192.168.120.5	-57"
"00:24:01:97:f0:10	1427956152.822251000		192.168.120.5	-63"
"00:24:01:97:f0:10	1427956154.243236000		192.168.120.5	-56"
"00:24:01:97:f0:10	1427956154.562829000		192.168.120.5	-54"
"00:24:01:97:f0:10	1427956155.691762000		192.168.120.5	-58"
"00:24:01:97:f0:10	1427956156.200879000		192.168.120.5	-55"
"00:24:01:97:f0:10	1427956157.020624000		192.168.120.5	-56"
"00:24:01:97:f0:10	1427956160.912084000		192.168.120.5	-54"
"00:24:01:97:f0:10	1427956163.472126000		192.168.120.5	-57"
"00:24:01:97:f0:10	1427956164.290558000		192.168.120.5	-56"
"00:24:01:97:f0:10	1427956164.892178000		192.168.120.5	-57"
"00:24:01:97:f0:10	1427956165.118460000		192.168.120.5	-63"
"00:24:01:97:f0:10	1427956165.712215000		192.168.120.5	-57"
"00:24:01:97:f0:10	1427956166.223391000		192.168.120.5	-56"
"00:24:01:97:f0:10	1427956166.544266000		192.168.120.5	-54"
"00:24:01:97:f0:10	1427956167.964086000		192.168.120.5	-57"
"00:24:01:97:f0:10	1427956168.476408000		192.168.120.5	-56"
"00:24:01:97:f0:10	1427956170.435265000		192.168.120.5	-56"
"00:24:01:97:f0:10	1427956170.729546000		192.168.120.5	-57"
"00:24:01:97:f0:10	1427956171.561823000		192.168.120.5	-54"
"00:24:01:97:f0:10	1427956172.380292000		192.168.120.5	-54"
"00:24:01:97:f0:10	1427956172.892460000		192.168.120.5	-56"
"00:24:01:97:f0:10	1427956173.712304000		192.168.120.5	-55"
"00:24:01:97:f0:10	1427956174.024664000		192.168.120.5	-55"
"00:24:01:97:f0:10	1427956175.452476000		192.168.120.5	-56"
"00:24:01:97:f0:10	1427956177.094943000		192.168.120.5	-56"
"00:24:01:97:f0:10	1427956177.385319000		192.168.120.5	-54"
"00:24:01:97:f0:10	1427956178.524658000		192.168.120.5	-56"
"00:24:01:97:f0:10	1427956179.840402000		192.168.120.5	-56"
"00:24:01:97:f0:10	1427956183.234551000		192.168.120.5	-54"
"00:24:01:97:f0:10	1427956185.679574000		192.168.120.5	-55"
"00:24:01:97:f0:10	1427956186.000452000		192.168.120.5	-54"
"00:24:01:97:f0:10	1427956186.310354000		192.168.120.5	-58"
"00:24:01:97:f0:10	1427956186.514819000		192.168.120.5	-64"
"00:24:01:97:f0:10	1427956186.838778000		192.168.120.5	-56"
"00:24:01:97:f0:10	1427956188.566484000		192.168.120.5	-57"
"00:24:01:97:f0:10	1427956189.071878000		192.168.120.5	-56"
"00:24:01:97:f0:10	1427956190.201560000		192.168.120.5	-54"
"00:24:01:97:f0:10	1427956191.002421000		192.168.120.5	-55"
"00:24:01:97:f0:10	1427956192.452409000		192.168.120.5	-57"
"00:24:01:97:f0:10	1427956194.383828000		192.168.120.5	-58"
"00:24:01:97:f0:10	1427956195.510408000		192.168.120.5	-57"
"00:24:01:97:f0:10	1427956196.021811000		192.168.120.5	-54"
"00:24:01:97:f0:10	1427956197.673674000		192.168.120.5	-56"
"00:24:01:97:f0:10	1427956198.493348000		192.168.120.5	-56"
"00:24:01:97:f0:10	1427956200.422583000		192.168.120.5	-54"
"00:24:01:97:f0:10	1427956201.872095000		192.168.120.5	-56"
"00:24:01:97:f0:10	1427956203.014265000		192.168.120.5	-57"
"00:24:01:97:f0:10	1427956203.035821000		192.168.120.5	-57"
"00:24:01:97:f0:10	1427956204.939408000		192.168.120.5	-57"
"00:73:e0:28:8b:e1	1427955916.580993000		192.168.120.5	-95"
"00:73:e0:28:8b:e1	1427956029.136974000		192.168.120.5	-91"
"06:7d:6a:a2:df:dd	1427956184.201022000		192.168.120.5	-80"
"20:d5:bf:81:b5:29	1427956020.732876000		192.168.120.5	-83"
"20:d5:bf:81:b5:29	1427956020.742327000		192.168.120.5	-80"
"20:d5:bf:81:b5:29	1427956020.751293000		192.168.120.5	-82"
"20:d5:bf:81:b5:29	1427956023.279842000		192.168.120.5	-79"
"20:d5:bf:81:b5:29	1427956023.280691000		192.168.120.5	-80"
"20:d5:bf:81:b5:29	1427956023.283181000		192.168.120.5	-79"
"20:d5:bf:81:b5:29	1427956023.291769000		192.168.120.5	-81"
"20:d5:bf:81:b5:29	1427956024.956862000		192.168.120.5	-80"
"20:d5:bf:81:b5:29	1427956024.959071000		192.168.120.5	-82"
"20:d5:bf:81:b5:29	1427956024.959073000		192.168.120.5	-82"
"20:d5:bf:81:b5:29	1427956024.959812000		192.168.120.5	-80"
"20:d5:bf:81:b5:29	1427956024.959814000		192.168.120.5	-81"
"20:d5:bf:81:b5:29	1427956024.962157000		192.168.120.5	-80"
"20:d5:bf:81:b5:29	1427956024.962160000		192.168.120.5	-81"
"20:d5:bf:81:b5:29	1427956027.183823000		192.168.120.5	-82"
"20:d5:bf:81:b5:29	1427956027.201180000		192.168.120.5	-83"
"20:d5:bf:81:b5:29	1427956066.346062000		192.168.120.5	-76"
"20:d5:bf:81:b5:29	1427956087.527103000		192.168.120.5	-76"
"20:d5:bf:81:b5:29	1427956092.257985000		192.168.120.5	-76"
"20:d5:bf:81:b5:29	1427956118.965338000		192.168.120.5	-77"
"20:d5:bf:81:b5:29	1427956123.769142000		192.168.120.5	-76"
"20:d5:bf:81:b5:29	1427956127.087050000		192.168.120.5	-75"
"20:d5:bf:81:b5:29	1427956154.395851000		192.168.120.5	-79"
"28:e3:47:42:a9:22	1427955924.948141000		192.168.120.5	-68"
"28:e3:47:42:a9:22	1427955926.049160000		192.168.120.5	-67"
"28:e3:47:42:a9:22	1427955926.050359000		192.168.120.5	-67"
"28:e3:47:42:a9:22	1427955926.055465000		192.168.120.5	-67"
"28:e3:47:42:a9:22	1427955926.056160000		192.168.120.5	-67"
"28:e3:47:42:a9:22	1427955926.072593000		192.168.120.5	-66"
"28:e3:47:42:a9:22	1427955926.628360000		192.168.120.5	-65"
"28:e3:47:42:a9:22	1427955926.628363000		192.168.120.5	-64"
"28:e3:47:42:a9:22	1427955926.637735000		192.168.120.5	-61"
"28:e3:47:42:a9:22	1427955935.777182000		192.168.120.5	-72"
"28:e3:47:42:a9:22	1427955935.783580000		192.168.120.5	-63"
"28:e3:47:42:a9:22	1427955936.311623000		192.168.120.5	-61"
"28:e3:47:42:a9:22	1427955936.334345000		192.168.120.5	-58"
"28:e3:47:42:a9:22	1427955938.122564000		192.168.120.5	-83"
"28:e3:47:42:a9:22	1427955939.661854000		192.168.120.5	-70"
"28:e3:47:42:a9:22	1427955968.369787000		192.168.120.5	-67"
"28:e3:47:42:a9:22	1427955971.494447000		192.168.120.5	-67"
"28:e3:47:42:a9:22	1427955972.904266000		192.168.120.5	-67"
"28:e3:47:42:a9:22	1427955974.004307000		192.168.120.5	-67"
"28:e3:47:42:a9:22	1427955976.504400000		192.168.120.5	-67"
"28:e3:47:42:a9:22	1427955976.504536000		192.168.120.5	-67"
"28:e3:47:42:a9:22	1427955976.504665000		192.168.120.5	-67"
"28:e3:47:42:a9:22	1427955979.868260000		192.168.120.5	-68"
"28:e3:47:42:a9:22	1427955983.192844000		192.168.120.5	-67"
"28:e3:47:42:a9:22	1427955983.212777000		192.168.120.5	-67"
"28:e3:47:42:a9:22	1427955987.427599000		192.168.120.5	-69"
"28:e3:47:42:a9:22	1427955987.979698000		192.168.120.5	-69"
"28:e3:47:42:a9:22	1427955987.981336000		192.168.120.5	-68"
"28:e3:47:42:a9:22	1427955987.982792000		192.168.120.5	-68"
"28:e3:47:42:a9:22	1427955990.495088000		192.168.120.5	-68"
"28:e3:47:42:a9:22	1427955992.985283000		192.168.120.5	-69"
"28:e3:47:42:a9:22	1427955993.276384000		192.168.120.5	-68"
"28:e3:47:42:a9:22	1427955993.276390000		192.168.120.5	-68"
"28:e3:47:42:a9:22	1427955993.276393000		192.168.120.5	-68"
"28:e3:47:42:a9:22	1427955993.276396000		192.168.120.5	-68"
"28:e3:47:42:a9:22	1427955993.276399000		192.168.120.5	-69"
"28:e3:47:42:a9:22	1427955995.463342000		192.168.120.5	-69"
"28:e3:47:42:a9:22	1427955995.735218000		192.168.120.5	-70"
"28:e3:47:42:a9:22	1427956010.134450000		192.168.120.5	-62"
"28:e3:47:42:a9:22	1427956010.415605000		192.168.120.5	-62"
"28:e3:47:42:a9:22	1427956011.616973000		192.168.120.5	-52"
"28:e3:47:42:a9:22	1427956016.803794000		192.168.120.5	-66"
"28:e3:47:42:a9:22	1427956018.434983000		192.168.120.5	-51"
"28:e3:47:42:a9:22	1427956024.146859000		192.168.120.5	-70"
"28:e3:47:42:a9:22	1427956067.232113000		192.168.120.5	-45"
"28:e3:47:42:a9:22	1427956080.637498000		192.168.120.5	-69"
"28:e3:47:42:a9:22	1427956083.374375000		192.168.120.5	-68"
"28:e3:47:42:a9:22	1427956084.471521000		192.168.120.5	-70"
"28:e3:47:42:a9:22	1427956084.478680000		192.168.120.5	-71"
"28:e3:47:42:a9:22	1427956084.766675000		192.168.120.5	-69"
"28:e3:47:42:a9:22	1427956085.300581000		192.168.120.5	-70"
"28:e3:47:42:a9:22	1427956089.217966000		192.168.120.5	-84"
"28:e3:47:42:a9:22	1427956089.229167000		192.168.120.5	-62"
"28:e3:47:42:a9:22	1427956101.482956000		192.168.120.5	-46"
"28:e3:47:42:a9:22	1427956102.031007000		192.168.120.5	-70"
"28:e3:47:42:a9:22	1427956103.995972000		192.168.120.5	-67"
"28:e3:47:42:a9:22	1427956105.086854000		192.168.120.5	-67"
"28:e3:47:42:a9:22	1427956107.330030000		192.168.120.5	-68"
"28:e3:47:42:a9:22	1427956114.005815000		192.168.120.5	-67"
"28:e3:47:42:a9:22	1427956114.028263000		192.168.120.5	-69"
"28:e3:47:42:a9:22	1427956123.775209000		192.168.120.5	-68"
"28:e3:47:42:a9:22	1427956123.823524000		192.168.120.5	-48"
"28:e3:47:42:a9:22	1427956129.870489000		192.168.120.5	-45"
"28:e3:47:42:a9:22	1427956133.731214000		192.168.120.5	-66"
"28:e3:47:42:a9:22	1427956165.304470000		192.168.120.5	-44"
"28:e3:47:42:a9:22	1427956166.143174000		192.168.120.5	-64"
"28:e3:47:42:a9:22	1427956173.474639000		192.168.120.5	-50"
"28:e3:47:42:a9:22	1427956179.962416000		192.168.120.5	-51"
"28:e3:47:42:a9:22	1427956180.018275000		192.168.120.5	-52"
"4c:5e:0c:41:61:8b	1427955902.851591000		192.168.120.5	-82"
"4c:5e:0c:41:61:8b	1427955909.024582000		192.168.120.5	-80"
"4c:5e:0c:41:61:8b	1427955911.249405000		192.168.120.5	-80"
"4c:5e:0c:41:61:8b	1427955911.862828000		192.168.120.5	-82"
"4c:5e:0c:41:61:8b	1427955918.331270000		192.168.120.5	-81"
"4c:5e:0c:41:61:8b	1427955919.953554000		192.168.120.5	-78"
"4c:5e:0c:41:61:8b	1427955922.513275000		192.168.120.5	-81"
"4c:5e:0c:41:61:8b	1427955923.331553000		192.168.120.5	-80"
"4c:5e:0c:41:61:8b	1427955925.009004000		192.168.120.5	-79"
"4c:5e:0c:41:61:8b	1427955938.282406000		192.168.120.5	-79"
"4c:5e:0c:41:61:8b	1427955938.589967000		192.168.120.5	-82"
"4c:5e:0c:41:61:8b	1427955940.247304000		192.168.120.5	-81"
"4c:5e:0c:41:61:8b	1427955944.952439000		192.168.120.5	-80"
"4c:5e:0c:41:61:8b	1427955946.371929000		192.168.120.5	-82"
"4c:5e:0c:41:61:8b	1427955953.643252000		192.168.120.5	-81"
"4c:5e:0c:41:61:8b	1427955956.433665000		192.168.120.5	-79"
"4c:5e:0c:41:61:8b	1427955956.731103000		192.168.120.5	-81"
"4c:5e:0c:41:61:8b	1427955969.003227000		192.168.120.5	-82"
"4c:5e:0c:41:61:8b	1427955971.580881000		192.168.120.5	-88"
"4c:5e:0c:41:61:8b	1427955973.210489000		192.168.120.5	-79"
"4c:5e:0c:41:61:8b	1427955973.524746000		192.168.120.5	-82"
"4c:5e:0c:41:61:8b	1427955974.840473000		192.168.120.5	-80"
"4c:5e:0c:41:61:8b	1427955975.454424000		192.168.120.5	-86"
"4c:5e:0c:41:61:8b	1427955980.188923000		192.168.120.5	-83"
"4c:5e:0c:41:61:8b	1427955988.918607000		192.168.120.5	-79"
"4c:5e:0c:41:61:8b	1427955989.930587000		192.168.120.5	-81"
"4c:5e:0c:41:61:8b	1427955992.434641000		192.168.120.5	-79"
"4c:5e:0c:41:61:8b	1427955992.729337000		192.168.120.5	-82"
"4c:5e:0c:41:61:8b	1427955997.427874000		192.168.120.5	-82"
"4c:5e:0c:41:61:8b	1427955997.763042000		192.168.120.5	-83"
"4c:5e:0c:41:61:8b	1427956002.141198000		192.168.120.5	-81"
"4c:5e:0c:41:61:8b	1427956006.850831000		192.168.120.5	-82"
"4c:5e:0c:41:61:8b	1427956008.487162000		192.168.120.5	-82"
"4c:5e:0c:41:61:8b	1427956009.619488000		192.168.120.5	-83"
"4c:5e:0c:41:61:8b	1427956013.514080000		192.168.120.5	-83"
"4c:5e:0c:41:61:8b	1427956018.581017000		192.168.120.5	-82"
"4c:5e:0c:41:61:8b	1427956020.541339000		192.168.120.5	-80"
"4c:5e:0c:41:61:8b	1427956030.855618000		192.168.120.5	-80"
"4c:5e:0c:41:61:8b	1427956033.414377000		192.168.120.5	-82"
"4c:5e:0c:41:61:8b	1427956033.940103000		192.168.120.5	-80"
"4c:5e:0c:41:61:8b	1427956034.272357000		192.168.120.5	-82"
"4c:5e:0c:41:61:8b	1427956036.503301000		192.168.120.5	-83"
"4c:5e:0c:41:61:8b	1427956037.321485000		192.168.120.5	-82"
"4c:5e:0c:41:61:8b	1427956038.454638000		192.168.120.5	-82"
"4c:5e:0c:41:61:8b	1427956039.251998000		192.168.120.5	-83"
"4c:5e:0c:41:61:8b	1427956042.323725000		192.168.120.5	-81"
"4c:5e:0c:41:61:8b	1427956053.485059000		192.168.120.5	-83"
"4c:5e:0c:41:61:8b	1427956058.516367000		192.168.120.5	-86"
"4c:5e:0c:41:61:8b	1427956064.135483000		192.168.120.5	-82"
"4c:5e:0c:41:61:8b	1427956065.261502000		192.168.120.5	-82"
"4c:5e:0c:41:61:8b	1427956066.694749000		192.168.120.5	-81"
"4c:5e:0c:41:61:8b	1427956067.513691000		192.168.120.5	-79"
"4c:5e:0c:41:61:8b	1427956073.453635000		192.168.120.5	-80"
"4c:5e:0c:41:61:8b	1427956078.487418000		192.168.120.5	-81"
"4c:5e:0c:41:61:8b	1427956103.777681000		192.168.120.5	-79"
"4c:5e:0c:41:61:8b	1427956113.506685000		192.168.120.5	-82"
"4c:5e:0c:41:61:8b	1427956116.565010000		192.168.120.5	-82"
"4c:5e:0c:41:61:8b	1427956118.216903000		192.168.120.5	-78"
"4c:5e:0c:41:61:8b	1427956119.020022000		192.168.120.5	-79"
"4c:5e:0c:41:61:8b	1427956141.752720000		192.168.120.5	-80"
"4c:5e:0c:41:61:8b	1427956142.574507000		192.168.120.5	-83"
"4c:5e:0c:41:61:8b	1427956144.227096000		192.168.120.5	-79"
"4c:5e:0c:41:61:8b	1427956145.352713000		192.168.120.5	-79"
"4c:5e:0c:41:61:8b	1427956146.773224000		192.168.120.5	-82"
"4c:5e:0c:41:61:8b	1427956148.409372000		192.168.120.5	-80"
"4c:5e:0c:41:61:8b	1427956152.521733000		192.168.120.5	-82"
"4c:5e:0c:41:61:8b	1427956157.234631000		192.168.120.5	-82"
"4c:5e:0c:41:61:8b	1427956160.492910000		192.168.120.5	-80"
"4c:5e:0c:41:61:8b	1427956164.810147000		192.168.120.5	-82"
"4c:5e:0c:41:61:8b	1427956165.615378000		192.168.120.5	-81"
"4c:5e:0c:41:61:8b	1427956182.304919000		192.168.120.5	-82"
"4c:5e:0c:41:61:8b	1427956187.322165000		192.168.120.5	-83"
"4c:5e:0c:41:61:8b	1427956194.300487000		192.168.120.5	-83"
"4c:5e:0c:41:61:8b	1427956195.923830000		192.168.120.5	-79"
"4c:5e:0c:41:61:8b	1427956199.200080000		192.168.120.5	-79"
"4c:5e:0c:41:61:8b	1427956199.506883000		192.168.120.5	-83"
"4c:5e:0c:41:61:8b	1427956203.724758000		192.168.120.5	-83"
"4c:5e:0c:41:61:8b	1427956204.832536000		192.168.120.5	-84"
"4c:5e:0c:41:cf:cd	1427955941.607197000		192.168.120.5	-47"
"4c:5e:0c:41:cf:cd	1427956103.732915000		192.168.120.5	-45"
"4c:5e:0c:41:cf:cd	1427956185.868641000		192.168.120.5	-45"
"54:e4:3a:6e:00:30	1427955903.946895000		192.168.120.5	-58"
"54:e4:3a:6e:00:30	1427955903.946898000		192.168.120.5	-56"
"54:e4:3a:6e:00:30	1427955903.969212000		192.168.120.5	-57"
"54:e4:3a:6e:00:30	1427955908.452482000		192.168.120.5	-60"
"54:e4:3a:6e:00:30	1427955909.546759000		192.168.120.5	-56"
"54:e4:3a:6e:00:30	1427955923.021903000		192.168.120.5	-58"
"54:e4:3a:6e:00:30	1427955923.022470000		192.168.120.5	-57"
"54:e4:3a:6e:00:30	1427955923.022473000		192.168.120.5	-58"
"54:e4:3a:6e:00:30	1427955933.265857000		192.168.120.5	-58"
"54:e4:3a:6e:00:30	1427955945.466973000		192.168.120.5	-70"
"54:e4:3a:6e:00:30	1427955952.497799000		192.168.120.5	-60"
"54:e4:3a:6e:00:30	1427955952.498501000		192.168.120.5	-62"
"54:e4:3a:6e:00:30	1427955952.498598000		192.168.120.5	-61"
"54:e4:3a:6e:00:30	1427955953.615135000		192.168.120.5	-60"
"54:e4:3a:6e:00:30	1427955959.732509000		192.168.120.5	-61"
"54:e4:3a:6e:00:30	1427955959.770610000		192.168.120.5	-65"
"54:e4:3a:6e:00:30	1427955970.104425000		192.168.120.5	-63"
"54:e4:3a:6e:00:30	1427955972.610877000		192.168.120.5	-64"
"54:e4:3a:6e:00:30	1427955973.474808000		192.168.120.5	-61"
"54:e4:3a:6e:00:30	1427955976.200006000		192.168.120.5	-64"
"54:e4:3a:6e:00:30	1427955981.532597000		192.168.120.5	-60"
"54:e4:3a:6e:00:30	1427955988.886962000		192.168.120.5	-68"
"54:e4:3a:6e:00:30	1427955988.887088000		192.168.120.5	-64"
"54:e4:3a:6e:00:30	1427955988.887162000		192.168.120.5	-64"
"54:e4:3a:6e:00:30	1427955988.887240000		192.168.120.5	-1"
"54:e4:3a:6e:00:30	1427955988.887357000		192.168.120.5	-1"
"54:e4:3a:6e:00:30	1427955988.887436000		192.168.120.5	-68"
"54:e4:3a:6e:00:30	1427955988.887503000		192.168.120.5	-64"
"54:e4:3a:6e:00:30	1427955988.887580000		192.168.120.5	-68"
"54:e4:3a:6e:00:30	1427955989.313396000		192.168.120.5	-67"
"54:e4:3a:6e:00:30	1427955989.313478000		192.168.120.5	-67"
"54:e4:3a:6e:00:30	1427955989.584692000		192.168.120.5	-67"
"54:e4:3a:6e:00:30	1427955989.930295000		192.168.120.5	-68"
"54:e4:3a:6e:00:30	1427955992.684375000		192.168.120.5	-66"
"54:e4:3a:6e:00:30	1427955992.684378000		192.168.120.5	-66"
"54:e4:3a:6e:00:30	1427955993.277407000		192.168.120.5	-66"
